Acoustic pre-processing • wildrtrax
…
Here is some raw Songscope output:

# Convert Songscope output into WildTrax tags

readr::read_table("./CONI.txt")
#> # A tibble: 23 × 8
#>    X:\\WLNP\\2018\\01\\WLNP-CONI\\…¹ `00:00:09.446` `0.192`  `78` `20.7` `53.97`
#>    <chr>                             <time>           <dbl> <dbl>  <dbl>   <dbl>
#>  1 "X:\\WLNP\\2018\\01\\WLNP-CONI\\… 00'32"           0.192    75   23.3    56.0
#>  2 "X:\\WLNP\\2018\\01\\WLNP-CONI\\… 00'34"           0.205    77   27      53.2
#>  3 "X:\\WLNP\\2018\\01\\WLNP-CONI\\… 00'37"           0.218    69   23.1    54.2
#>  4 "X:\\WLNP\\2018\\01\\WLNP-CONI\\… 00'40"           0.269    67   36.1    50.1
#>  5 "X:\\WLNP\\2018\\01\\WLNP-CONI\\… 00'44"           0.269    69   26.4    60.7
#>  6 "X:\\WLNP\\2018\\01\\WLNP-CONI\\… 00'48"           0.218    73   25.8    50.8
#>  7 "X:\\WLNP\\2018\\01\\WLNP-CONI\\… 00'52"           0.371    71   63.8    50.4
#>  8 "X:\\WLNP\\2018\\01\\WLNP-CONI\\… 00'58"           0.256    63   33.1    54.2
#>  9 "X:\\WLNP\\2018\\01\\WLNP-CONI\\… 01'06"           0.422    73   64.9    52.2
#> 10 "X:\\WLNP\\2018\\01\\WLNP-CONI\\… 01'06"           0.333    68   36.2    55.1
#> # ℹ 13 more rows
#> # ℹ abbreviated name:
#> #   ¹​`X:\\WLNP\\2018\\01\\WLNP-CONI\\WLNP-CONI-001\\WLNP-CONI-001_20180720_203000.wav`
#> # ℹ 2 more variables: CONI_Boom2.0 <chr>, X8 <lgl>
…
Similarly, a Kaleidoscope output can be converted similarly:

wt_kaleidoscope_tags(
  input = "./id.csv",
  output = NULL,
  freq_bump = T) # Add a 20000 Hz frequency buffer to the tag
#> # A tibble: 45 × 17
#>    location recording_date_time task_method recording_sample_fre…¹ task_duration
#>    <chr>    <chr>               <chr>       <chr>                          <dbl>
#>  1 A-RD-10… 2021-06-06 23:48:05 None        ""                              8.29
#>  2 A-RD-10… 2021-06-04 00:14:49 None        ""                             15.3 
#>  3 A-RD-10… 2021-06-06 23:53:02 None        ""                              7.46
#>  4 A-RD-10… 2021-06-06 23:30:47 None        ""                              7.16
#>  5 A-RD-10… 2021-06-03 23:27:26 None        ""                              9.44
#>  6 A-RD-10… 2021-06-05 23:37:32 None        ""                              7.7 
#>  7 A-RD-10… 2021-06-07 00:22:50 None        ""                              6.77
#>  8 A-RD-10… 2021-06-04 00:17:38 None        ""                              7.64
#>  9 A-RD-10… 2021-06-07 23:30:32 None        ""                              8.35
#> 10 A-RD-10… 2021-06-08 02:02:19 None        ""                              7.62
#> # ℹ 35 more rows
#> # ℹ abbreviated name: ¹​recording_sample_frequency
#> # ℹ 12 more variables: task_is_complete <chr>, observer <chr>,
#> #   species_code <chr>, species_individual_comments <chr>,
#> #   individual_number <int>, vocalization <chr>, abundance <dbl>,
#> #   tag_start_time <dbl>, tag_duration <dbl>, min_tag_freq <dbl>,
#> #   max_tag_freq <dbl>, internal_tag_id <chr>
…
